291882 476898
512198 164281
993118 574191
418316 886976
364156 244407
657814 664922
92696 630384
80563 220492
962081 851875
335752 755993
511909 684168
473173 563783
437146 482847
319200 889401
116536 854784
98590 116806
208534 3931
741079 717113
910004 625594
129916 71058
908152 705609
174049 223663
119695 664790
741193 68854
993556 587025
967858 815077
570547 791390
605611 810086
387696 598033
377339 449022
207317 502617
273679 950957
673875 897277
205314 480366
261981 435638
804661 699413
705121 474254
719861 279301
925915 784140
476296 21554
705778 192315
317142 118540
659378 317098
570646 561001
604321 88187
674569 532724
248152 553303
685595 726911
521715 696221
487078 283570
833950 739534
270874 350441
405458 194478
106578 125208
684344 440544
303544 509779
290525 476947
853357 900646
936844 303807
158802 681756
106773 931856
852956 689209
921662 328789
841931 594448
143860 938425
750631 44269
538198 320677
767976 143112
613266 845428
177560 405606
366180 239100
89095 498064
572899 231053
175924 261830
332814 63466
98478 648940
134221 21574
609943 650375
634799 100017
186787 413871
443150 537344
450740 8544
342549 54294
823056 838822
535300 925290
220989 115647
21618 675075
389283 857664
629443 420160
472138 337915
245706 698414
464437 621624
756720 422217
982239 776001
683464 766817
493072 985595
866870 778167
313568 913325
429293 718197
698036 135342
771113 476879
240761 647843
927429 406074
480619 810176
51380 582917
313446 303346
153258 403181
510365 62186
137088 407893
155786 444009
297805 626678
982823 962061
34040 908072
448073 714368
995192 561698
718792 229798
74327 194157
369477 790861
155894 816678
26689 569691
131864 852515
713309 203479
785938 841621
870049 21421
305964 211871
616940 914216
276597 710607
237879 926818
946164 990386
543068 342288
989178 808638
946709 526399
981259 162591
920529 576606
854246 211506
687624 325735
318175 837142
283694 170057
946783 727378
941675 470629
358792 113479
15069 802223
665032 685504
381230 890653
974963 589524
11898 806740
239195 770069
599261 567086
787159 846237
418127 930773
445903 624061
756230 447226
418115 983080
685931 964343
762772 68453
917283 356283
291631 218993
417774 204341
506820 520243
502190 58394
550078 243564
480049 192638
9465 589909
896642 733500
893637 927976
328649 612893
682062 569082
801673 188314
377220 467555
10889 300475
672563 380006
582384 630341
563707 848914
659935 219420
939812 712888
199336 156666
912030 73579
12536 308452
864688 922941
536481 141101
401185 979471
79182 595909
436540 88266
839793 866842
319 917074
280425 496330
727979 21846
475522 699934
679256 945314
655604 237025
536957 339428
864619 756144
399381 433982
145874 30621
155435 488621
132422 441189
524269 916418
407384 734115
225 130030
224446 479864
524152 825157
95501 923214
482280 402336
736630 720745
707890 745300
908408 984568
970981 773817
517321 76317
131232 804109
141654 906086
401930 368492
696314 983437
45489 954122
830852 983760
702367 395973
673734 137961
431651 64126
557815 394881
369923 166360
581057 7743
508027 910101
731030 775206
54826 675202
880377 865710
